%YAML 1.1
%TAG !u! tag:unity3d.com,2011:
--- !u!1001 &1917480936669916498
PrefabInstance:
  m_ObjectHideFlags: 0
  serializedVersion: 2
  m_Modification:
    m_TransformParent: {fileID: 0}
    m_Modifications:
    - target: {fileID: 2929458171166637009, guid: 6c2ec36bfbaa65b4c985015816400f39, type: 3}
      propertyPath: m_Materials.Array.data[0]
      value: 
      objectReference: {fileID: 2100000, guid: 3ddcd6a0eedf5df42be586c91651bb21, type: 2}
    - target: {fileID: 2929458171805331524, guid: 6c2ec36bfbaa65b4c985015816400f39, type: 3}
      propertyPath: m_Name
      value: Enemy3
      objectReference: {fileID: 0}
    - target: {fileID: 2929458171805331896, guid: 6c2ec36bfbaa65b4c985015816400f39, type: 3}
      propertyPath: _Speed
      value: 4
      objectReference: {fileID: 0}
    - target: {fileID: 2929458171805331897, guid: 6c2ec36bfbaa65b4c985015816400f39, type: 3}
      propertyPath: m_RootOrder
      value: 0
      objectReference: {fileID: 0}
    - target: {fileID: 2929458171805331897, guid: 6c2ec36bfbaa65b4c985015816400f39, type: 3}
      propertyPath: m_LocalPosition.x
      value: 0
      objectReference: {fileID: 0}
    - target: {fileID: 2929458171805331897, guid: 6c2ec36bfbaa65b4c985015816400f39, type: 3}
      propertyPath: m_LocalPosition.y
      value: 0
      objectReference: {fileID: 0}
    - target: {fileID: 2929458171805331897, guid: 6c2ec36bfbaa65b4c985015816400f39, type: 3}
      propertyPath: m_LocalPosition.z
      value: 0
      objectReference: {fileID: 0}
    - target: {fileID: 2929458171805331897, guid: 6c2ec36bfbaa65b4c985015816400f39, type: 3}
      propertyPath: m_LocalRotation.w
      value: 1
      objectReference: {fileID: 0}
    - target: {fileID: 2929458171805331897, guid: 6c2ec36bfbaa65b4c985015816400f39, type: 3}
      propertyPath: m_LocalRotation.x
      value: 0
      objectReference: {fileID: 0}
    - target: {fileID: 2929458171805331897, guid: 6c2ec36bfbaa65b4c985015816400f39, type: 3}
      propertyPath: m_LocalRotation.y
      value: 0
      objectReference: {fileID: 0}
    - target: {fileID: 2929458171805331897, guid: 6c2ec36bfbaa65b4c985015816400f39, type: 3}
      propertyPath: m_LocalRotation.z
      value: 0
      objectReference: {fileID: 0}
    - target: {fileID: 2929458171805331897, guid: 6c2ec36bfbaa65b4c985015816400f39, type: 3}
      propertyPath: m_LocalEulerAnglesHint.x
      value: 0
      objectReference: {fileID: 0}
    - target: {fileID: 2929458171805331897, guid: 6c2ec36bfbaa65b4c985015816400f39, type: 3}
      propertyPath: m_LocalEulerAnglesHint.y
      value: 0
      objectReference: {fileID: 0}
    - target: {fileID: 2929458171805331897, guid: 6c2ec36bfbaa65b4c985015816400f39, type: 3}
      propertyPath: m_LocalEulerAnglesHint.z
      value: 0
      objectReference: {fileID: 0}
    - target: {fileID: 2929458171805331902, guid: 6c2ec36bfbaa65b4c985015816400f39, type: 3}
      propertyPath: _StartingHealth
      value: 200
      objectReference: {fileID: 0}
    m_RemovedComponents: []
  m_SourcePrefab: {fileID: 100100000, guid: 6c2ec36bfbaa65b4c985015816400f39, type: 3}
